<?xml version="1.0" encoding="utf-8" standalone="yes" ?>
<feed xmlns="http://www.w3.org/2005/Atom">

	<title>DevOps Brasil</title>
	<link rel="self" href="atom.xml"/>
	<link href="devops-br.org"/>
	<id>atom.xml</id>
	<updated>2015-04-01T21:40:02+00:00</updated>
	<generator uri="http://www.planetplanet.org/">Planet/2.0 +http://www.planetplanet.org</generator>

	<entry xml:lang="pt-PT">
		<title type="html">O porquê escolhemos o puppet</title>
		<link href="http://techfree.com.br/2015/03/o-porque-escolhemos-o-puppet/"/>
		<id>http://techfree.com.br/?p=120</id>
		<updated>2015-03-28T05:54:19+00:00</updated>
		<content type="html">&lt;p&gt;Na organização que trabalho foi colocada a demanda de implantar um ferramenta de gerência de configuração, pois nosso ambiente sofre de uma grande carência em documentar suas mudanças, proporcionar uma documentação atualizada, isso sem falar na velocidade de atendimento de novas demandas ser prejudicada pela necessidade de atividade repetitiva/operacional majoritariamente manual.&lt;/p&gt;
&lt;p&gt;Depois de uma longa etapa de analise preliminar iniciamos a comparação entre três soluções que poderia atender nossas expectativas: Chef, Puppet e Salt.&lt;/p&gt;
&lt;div id=&quot;attachment_125&quot; class=&quot;wp-caption aligncenter&quot;&gt;&lt;a href=&quot;http://techfree.com.br/wp-content/uploads/2015/03/Choices-1.jpg&quot;&gt;&lt;img class=&quot;wp-image-125 size-medium&quot; src=&quot;http://techfree.com.br/wp-content/uploads/2015/03/Choices-1-300x239.jpg&quot; alt=&quot;Choices 1&quot; width=&quot;300&quot; height=&quot;239&quot; /&gt;&lt;/a&gt;&lt;p class=&quot;wp-caption-text&quot;&gt;Escolher nem sempre é uma tarefa fácil&lt;/p&gt;&lt;/div&gt;
&lt;p&gt;&lt;span id=&quot;more-120&quot;&gt;&lt;/span&gt;Dentre vários critérios analisados, levantamos cinco pontos que julgamos ser os mais relevantes para nossa realidade:&lt;/p&gt;
&lt;ul&gt;
&lt;li&gt;Complexidade de instalação&lt;/li&gt;
&lt;li&gt;Curva de aprendizado&lt;/li&gt;
&lt;li&gt;Orquestrador&lt;/li&gt;
&lt;li&gt;Dashboard&lt;/li&gt;
&lt;li&gt;Quem utiliza&lt;/li&gt;
&lt;/ul&gt;
&lt;p&gt;Com base nisso, instalamos cada solução, testamos o que ela poderia fazer para nos ajudar e refletirmos com base nos pontos já informados acima. Segue abaixo o resultado da nossa análise.&lt;/p&gt;
&lt;h2&gt;Complexidade de instalação&lt;/h2&gt;
&lt;h3&gt;Puppet&lt;/h3&gt;
&lt;p&gt;A instalação dos pacotes puppetmaster(servidor) e puppet(clientes) na sua versão open-source, não revelou-se muito complicada. Sua documentação oficial, orienta inicialmente instalar o pacote puppetlabs-release, com a versão referente ao sistema operacional. A única ressalva com relação à essa etapa, é a escolha do pacote para o servidor, pois o puppetmaster é recomendável somente para ambiente menores, com pouca carga, pois seu servidor web embutido (&lt;a href=&quot;http://en.wikipedia.org/wiki/WEBrick&quot; target=&quot;_blank&quot;&gt;webrick&lt;/a&gt;) suporta poucos nós clientes, para um ambiente mais escalável deve-se optar pelo puppetmaster-passenger.&lt;/p&gt;
&lt;p&gt;Apesar de orquestrador ser um critério analisado mais adiante, a complexidade de sua instalação está dentro do escopo desse critério. Embora a documentação oficial não faça nenhuma recomendação explicita ao uso do &lt;a href=&quot;https://puppetlabs.com/mcollective&quot; target=&quot;_blank&quot;&gt;MCollective&lt;/a&gt; como orquestrador na versão Opensource, na Enterprise ela já vem embutida, somando isso ao fato dele já possuir plugins nativos para o Puppet, pesou na escolha dessa ferramenta para a tarefa de orquestração.&lt;/p&gt;
&lt;p&gt;Na versão Opensource do Puppet, o orquestrador não é configurado por padrão, houve um esforço maior na sua instalação e configuração. Há dependência da instalação e configuração de um Midleware, sistema de mensageira (&lt;a href=&quot;http://activemq.apache.org/&quot; target=&quot;_blank&quot;&gt;Apache ActiveMQ&lt;/a&gt;).&lt;/p&gt;
&lt;p&gt;Tivemos dificuldade com relação a falta de orientação para cenários mais complexos, por exemplo, com relação a questão de segurança na comunicação do midleware.&lt;/p&gt;
&lt;h3&gt;Salt&lt;/h3&gt;
&lt;p&gt;Basta instalar os pacotes salt-master(servidor) e salt-minion(clientes), fazer uma simples configuração para que os nós clientes reconheçam o master, posteriormente o master autenticar chaves publicas dos clientes e o ambiente já estará pronto para ser utilizado.&lt;/p&gt;
&lt;p&gt;O orquestrador faz parte da solução Salt, sendo assim a facilidade na instalação apresentada até então abrange também o orquestrador.&lt;/p&gt;
&lt;h3&gt;Chef&lt;/h3&gt;
&lt;p&gt;Sua instalação, com a exceção do cliente (chef-client), foi dificultada por alguns fatores.&lt;/p&gt;
&lt;ul&gt;
&lt;li&gt;Na topologia cliente-servidor, o chef se diferencia das demais em virtude dele ser composto por 3 itens: Server; Workstation e Nodes, que apesar da documentação oficial explicar a função de cada um deles, a mesma não dá uma orientação sobre sua instalação.&lt;/li&gt;
&lt;li&gt;Com relação ao pacote para servidor (chef-server), no site oficial é disponibilizado apenas para Ubuntu e RHEL, e eles não demonstram nenhum interesse manter uma versão para o Debian no lado do servidor.&lt;/li&gt;
&lt;/ul&gt;
&lt;h3&gt;Conclusão desse critério&lt;/h3&gt;
&lt;p&gt;Adotando a topologia cliente-servidor, visto que todas os softwares analisados permitem também a opção standalone, ou seja, em modo autônomo, o Salt demonstrou-se a mais simples, o Chef mais complexa, ficando o puppet com complexidade intermediária. A opção pelo modelo cliente-servidor foi feita em virtude da gerência centralizada e a possibilidade do acompanhamento das modificações nos agentes através de um painel (dashboard), item que será melhor detalhado mais adiante.&lt;/p&gt;
&lt;h2&gt;Curva de aprendizado&lt;/h2&gt;
&lt;p&gt;Antes de iniciarmos a discussão desse critério, faz-se necessário a contextualização de alguns aspectos sobre gerenciamento ou automação de configurações, referentes aos três softwares examinados.&lt;/p&gt;
&lt;p&gt;Em todos eles, as configurações são codificadas estaticamente através de arquivos chamados: Manifest no Puppet, Formulas no Salt e Cookbooks no Chef. Nessa parte não houve muita dificuldade de compreensão, não necessitando de um conhecimento muito avançado à nível de programação ou de linguagem específica, apesar de que, no Chef os Cookbooks podem ser escritos também em Ruby puro.&lt;/p&gt;
&lt;p&gt;O interessante é que em todos eles utilizam algum conceito de linguagens de Orientação à Objetos como por exemplo, suporte a funcionalidade de heranças.&lt;/p&gt;
&lt;p&gt;Outro detalhe não menos importantes e bem intuitivo, consiste em que todos eles possuem utilitários responsáveis pela obtenção de informação dos agentes: &lt;a href=&quot;https://puppetlabs.com/facter&quot; target=&quot;_blank&quot;&gt;Facter&lt;/a&gt; no Puppet, &lt;a href=&quot;http://docs.saltstack.com/en/latest/topics/targeting/grains.html&quot; target=&quot;_blank&quot;&gt;Grains&lt;/a&gt; no Salt e &lt;a href=&quot;https://docs.chef.io/ohai.html&quot; target=&quot;_blank&quot;&gt;Ohai&lt;/a&gt; no Chef, com os quais descrevem as propriedades dos sistemas operacionais, permitindo filtros na definição de estados das configurações assim como na orquestração.&lt;/p&gt;
&lt;p&gt;Nesse critério, houve um empate técnico, pois todas são semelhantes no que diz respeito às definições de gerenciamento ou automatização de configurações, com perspectiva bastante compreensíveis.&lt;/p&gt;
&lt;h2&gt;Orquestrador&lt;/h2&gt;
&lt;p&gt;Segundo o Guto Carvalho (slide 5 da palestra Orquestração com MCollective): &amp;#8220;Orquestrar significa invocar ações de forma paralela ou não, em tempo real, em diversos servidores de um datacenter, fazendo isto de forma automatizada, eficiente e controlada&amp;#8221;. Orquestração não é gerenciamento de configuração e sim um tipo diferente de automatização em que ambos se complementam. Diferencia-se da seguinte forma, enquanto que na gerência de configurações, os estados desejados de um sistema é modelado, na orquestração, as ações são executadas remotamente sob demanda.&lt;/p&gt;
&lt;p&gt;Nesse critério somente o Puppet e o Salt serão discutidos, visto que o Chef não possui orquestrador integrado como no Salt, nem mesmo tem em sua documentação alguma menção à nenhum utilitário externo desse tipo, como o Puppet tem o MCollective como exemplo, no seu caso, o uso da ferramenta como o knife com ssh, a qual está mais para execução remota, seria o que mais se aproximaria de orquestração.&lt;/p&gt;
&lt;h3&gt;Puppet&lt;/h3&gt;
&lt;p&gt;O MCollective, orquestrador adotado pelo mesmo, é uma ferramenta bem simples de utilizar, com bastantes plugins disponíveis, inclusive para o próprio Puppet. Ele disponibiliza diversas funcionalidades, como instalação de pacotes, gerência de serviços, shell (interpretador de comandos) e etc, além de ser extensível através de protocolo RPC. A complexidade de sua instalação, pelo fato do mesmo ser um outro software(pacote), com configuração própria e necessidade de instalar um pacote agent e client para cada plugin disponível, somando-se a depência de um midlleware, no caso o &lt;a href=&quot;http://activemq.apache.org/&quot; target=&quot;_blank&quot;&gt;ActiveMQ&lt;/a&gt;, que também demanda uma instalação separada.&lt;/p&gt;
&lt;h3&gt;Salt&lt;/h3&gt;
&lt;p&gt;No Salt, da mesma forma que o MCollective, seu orquestrador, disponibiliza uma infinidade de módulos, oferecendo funcionalidades como: instalação de pacotes, gerência de serviços, shell (interpretador de comandos) e etc. além de ser extensível. O fato de já vir integrado e configurado, inclusive com seu middleware (&lt;a href=&quot;http://zeromq.org/&quot; target=&quot;_blank&quot;&gt;ZeroMQ&lt;/a&gt;) cuja a leveza de sua biblioteca serve como framework de concorrência, sem falar no fato da comunicação ser nativamente segura entre o master.&lt;/p&gt;
&lt;h3&gt;Conclusão desse critério&lt;/h3&gt;
&lt;p&gt;o Salt levou uma grande vantagem nesse item, por essa funcionalidade já vir integrada e utilizar técnicas que permitem escalabilidade e velocidade na execução remota de suas tarefas, com uma linguagem bastante homogênea em virtude de sua agregação, ao contrário do MCollective no Puppet, ficando em segundo lugar como opção nesse item.&lt;/p&gt;
&lt;h2&gt;Dashboard&lt;/h2&gt;
&lt;p&gt;Após toda contextualização sobre automatização ou gerenciamento de configurações e orquestração, esse item é de fundamental importância para o nosso ambiente. O envio de relatórios, classificação externa e acompanhamento do ciclo de vida dos ativos em tempo real, ou seja, toda a visibilidade do que acontece no nosso ambiente após aplicação de alguma nova configuração. Tudo isso é esperado em um Dashboard.&lt;/p&gt;
&lt;p&gt;Nesse quesito apenas uma ferramenta externa atendeu nossas expectativas. O &lt;a href=&quot;http://theforeman.org/&quot; target=&quot;_blank&quot;&gt;Foreman&lt;/a&gt; é a ferramenta ideal para nosso ambiente, pois consiste em um gerenciamento do ciclo de vida desde provisionamento, configuração para orquestração e monitoramento. Tem interação nativa com o Puppet e sua interface web oferece várias informações com gráficos e formatos bastantes intuitivos, assim como muito mais recursos que os prórpios painéis oferecidos pelos próprios projetos das três ferramentas observadas.&lt;/p&gt;
&lt;p&gt;A documentação do Foreman mencionar suporte também para o Salt e Chef, mas com limitação de certos recursos, isso sem falar na interação nativa que ele tem apenas com o Puppet, a qual contribuiu para promovê-lo como opção mais vantajosa em comparação às outras duas ferramentas nesse item.&lt;/p&gt;
&lt;h2&gt;Quem usa&lt;/h2&gt;
&lt;p&gt;Observamos quais as organizações/empresas que usam todas as três soluções e chegamos a conclusão que o Puppet tem um conjunto de usuários mais próximos da nossa organização, além de ter um número de &amp;#8220;grandes players&amp;#8221; bem superior as outras.&lt;/p&gt;
&lt;h2&gt;Conclusão final&lt;/h2&gt;
&lt;p&gt;Com base em tudo que foi explanado até então, principalmente no que tange a quem usa a ferramenta e existência de um ótimo suporte ao Dashboard que atende nossas expectativas, fica evidente que a solução que mais atende nossa necessidade é de fato o Puppet, mesmo o Salt tendo demonstrado ser uma alternativa bem mais simples.&lt;/p&gt;
&lt;h2&gt;Fonte&lt;/h2&gt;
&lt;p&gt;Esse texto foi construído com base no relatório final apresentado pelo bolsista Péricles Júnior, que trabalha na Coordenação de Redes e Infraestrutura de Superintendência de Tecnologia da Informação da Universidade Federal da Bahia.&lt;/p&gt;</content>
		<author>
			<name>Techfree (Gomex)</name>
			<uri>http://techfree.com.br</uri>
		</author>
		<source>
			<title type="html">Tecnologia Livre » DevOps</title>
			<subtitle type="html">Tecnologia precisa ser livre</subtitle>
			<link rel="self" href="http://techfree.com.br/category/devops/feed/"/>
			<id>http://techfree.com.br/category/devops/feed/</id>
			<updated>2015-03-30T18:20:02+00:00</updated>
		</source>
	</entry>

	<entry xml:lang="pt-PT">
		<title type="html">Modificando e distribuindo “máquinas” Docker</title>
		<link href="http://techfree.com.br/2015/03/modificando-e-distribuindo-maquinas-docker/"/>
		<id>http://techfree.com.br/?p=93</id>
		<updated>2015-03-26T03:44:24+00:00</updated>
		<content type="html">&lt;p&gt;Como relatei nesse &lt;a title=&quot;Docker infraestrutura simples e rápida&quot; href=&quot;http://techfree.com.br/2015/03/docker-infraestrutura-simples-e-rapida&quot; target=&quot;_blank&quot;&gt;artigo&lt;/a&gt;, um dos objetivos do Docker é sua facilidade para distribuição de imagens/&amp;#8221;máquinas&amp;#8221;, mantendo a sua portabilidade e simplicidade&lt;/p&gt;
&lt;p&gt;Nesse texto, vou demonstrar como podemos modificar as imagens, que muitos chamam de máquina, e então distribuir via &lt;a href=&quot;https://hub.docker.com/&quot; target=&quot;_blank&quot;&gt;nuvem pública do Docker.&lt;/a&gt;&lt;/p&gt;
&lt;p&gt;&lt;a href=&quot;http://techfree.com.br/wp-content/uploads/2015/03/docker-whales-transparent.png&quot;&gt;&lt;img class=&quot; size-medium wp-image-104 aligncenter&quot; src=&quot;http://techfree.com.br/wp-content/uploads/2015/03/docker-whales-transparent-300x250.png&quot; alt=&quot;docker-whales-transparent&quot; width=&quot;300&quot; height=&quot;250&quot; /&gt;&lt;/a&gt;&lt;/p&gt;
&lt;h2&gt;&lt;span id=&quot;more-93&quot;&gt;&lt;/span&gt;Iniciando a máquina&lt;/h2&gt;
&lt;p&gt;Para modificar uma imagem, precisamos que ela seja iniciada e então teremos a camada que chamados de container. Que é onde as mudanças são aplicadas. Para iniciar a &amp;#8220;máquina&amp;#8221; usa-se o comando abaixo:&lt;/p&gt;
&lt;p&gt;&lt;code&gt;# docker run -d -p 80:80 nginx&lt;/code&gt;&lt;/p&gt;
&lt;p&gt;Agora vamos obter o número de identificação do container com o comando abaixo:&lt;/p&gt;
&lt;p&gt;&lt;code&gt;# docker ps&lt;/code&gt;&lt;/p&gt;
&lt;h2&gt;Modifique a máquina&lt;/h2&gt;
&lt;p&gt;Execute as modificações que deseja nessa &amp;#8220;máquina&amp;#8221;. Com o comando abaixo é possível acessar o shell da máquina recém iniciada.&lt;/p&gt;
&lt;p&gt;&lt;code&gt;# docker exec -it &amp;lt;id do container&amp;gt; bash&lt;/code&gt;&lt;/p&gt;
&lt;h2&gt;Verifique o que mudou&lt;/h2&gt;
&lt;p&gt;Para verificar quais arquivos de fato foram modificados nesse container. Execute o comando abaixo:&lt;/p&gt;
&lt;p&gt;&lt;code&gt;# docker diff &amp;lt;id do container&amp;gt;&lt;br /&gt;
&lt;/code&gt;&lt;/p&gt;
&lt;h2&gt;Aplique a mudança&lt;/h2&gt;
&lt;p&gt;Agora que tem certeza sobre a mudança que será feita. Vamos criar uma nova imagem com base no estado desse container com o comando abaixo:&lt;/p&gt;
&lt;p&gt;&lt;code&gt;# docker commit &amp;lt;id do container&amp;gt; gomex/nginx-modificado&lt;br /&gt;
&lt;/code&gt;&lt;/p&gt;
&lt;p&gt;Atente que o termo &amp;#8220;gomex&amp;#8221; é meu usuário previamente registrado na &lt;a href=&quot;https://hub.docker.com/&quot; target=&quot;_blank&quot;&gt;nuvem pública do Docker&lt;/a&gt;. E tudo que vem depois da &amp;#8220;/&amp;#8221; é o nome da imagem que desejo criar. Com o comando abaixo será possível conferir que a máquina informada foi criada:&lt;/p&gt;
&lt;p&gt;&lt;code&gt;# docker images&lt;br /&gt;
&lt;/code&gt;&lt;/p&gt;
&lt;h2&gt;Compartilhe&lt;/h2&gt;
&lt;p&gt;Agora vamos disponibilizar essa imagem para que outras pessoas possam baixar e usufruir da sua colaboração. Para isso usa-se o comando abaixo:&lt;/p&gt;
&lt;p&gt;&lt;code&gt;# docker push gomex/nginx-modificado&lt;/code&gt;&lt;/p&gt;
&lt;p&gt;Acesse a &lt;a href=&quot;https://hub.docker.com/&quot; target=&quot;_blank&quot;&gt;nuvem pública do Docker&lt;/a&gt; e verá que sua imagem estará disponível para quem quiser baixar.&lt;/p&gt;
&lt;div id=&quot;attachment_107&quot; class=&quot;wp-caption aligncenter&quot;&gt;&lt;a href=&quot;http://techfree.com.br/wp-content/uploads/2015/03/what_is_docker.png&quot;&gt;&lt;img class=&quot;size-medium wp-image-107&quot; src=&quot;http://techfree.com.br/wp-content/uploads/2015/03/what_is_docker-300x226.png&quot; alt=&quot;Docker facilitando o trabalho colaborativo.&quot; width=&quot;300&quot; height=&quot;226&quot; /&gt;&lt;/a&gt;&lt;p class=&quot;wp-caption-text&quot;&gt;Docker facilitando o trabalho colaborativo.&lt;/p&gt;&lt;/div&gt;
&lt;p&gt;Pronto! Por hoje é só &lt;img src=&quot;http://techfree.com.br/wp-includes/images/smilies/icon_smile.gif&quot; alt=&quot;:)&quot; class=&quot;wp-smiley&quot; /&gt; Aguardem novas postagens sobre o &lt;a title=&quot;Docker &quot; href=&quot;http://techfree.com.br/category/docker/&quot; target=&quot;_blank&quot;&gt;Docker&lt;/a&gt;.&lt;/p&gt;</content>
		<author>
			<name>Techfree (Gomex)</name>
			<uri>http://techfree.com.br</uri>
		</author>
		<source>
			<title type="html">Tecnologia Livre » DevOps</title>
			<subtitle type="html">Tecnologia precisa ser livre</subtitle>
			<link rel="self" href="http://techfree.com.br/category/devops/feed/"/>
			<id>http://techfree.com.br/category/devops/feed/</id>
			<updated>2015-03-30T18:20:02+00:00</updated>
		</source>
	</entry>

	<entry xml:lang="pt-PT">
		<title type="html">Docker, infraestrutura simples e rápida</title>
		<link href="http://techfree.com.br/2015/03/docker-infraestrutura-simples-e-rapida/"/>
		<id>http://techfree.com.br/?p=73</id>
		<updated>2015-03-24T06:24:55+00:00</updated>
		<content type="html">&lt;h2&gt;O que é Docker&lt;/h2&gt;
&lt;p&gt;Uma plataforma aberta para desenvolvedores e administradores de sistemas, usada para construir, executar e distribuir &amp;#8220;máquinas&amp;#8221;.&lt;/p&gt;
&lt;p&gt;&amp;#8220;Máquina&amp;#8221; será sempre usada entre parentese, pois esse termo será usado apenas para facilitar o entendimento. Ele não é correto, uma vez que máquina mesmo é somente o host onde o docker é executado, ou seja, tudo roda de forma isolada na mesma máquina.&lt;/p&gt;
&lt;p&gt;Tudo isso é possível por conta da Docker Engine, que é um forma de empacotamento de infraestrutura, que é portável e simples, na qual constitui facilmente várias &amp;#8220;máquinas&amp;#8221; executando no mesmo kernel, porem isoladas logicamente, usando as tecnologias &lt;a href=&quot;https://linuxcontainers.org/&quot; target=&quot;_blank&quot;&gt;LXC&lt;/a&gt;, &lt;a href=&quot;http://aufs.sourceforge.net/&quot; target=&quot;_blank&quot;&gt;AUFS&lt;/a&gt; e &lt;a href=&quot;https://btrfs.wiki.kernel.org/index.php/Main_Page&quot; target=&quot;_blank&quot;&gt;BTRFS&lt;/a&gt;.&lt;/p&gt;
&lt;div id=&quot;attachment_102&quot; class=&quot;wp-caption aligncenter&quot;&gt;&lt;a href=&quot;http://techfree.com.br/wp-content/uploads/2015/03/docker_vs_vmware.png&quot;&gt;&lt;img class=&quot;size-medium wp-image-102&quot; src=&quot;http://techfree.com.br/wp-content/uploads/2015/03/docker_vs_vmware-300x193.png&quot; alt=&quot;Parece Virtualização, mas não é :)&quot; width=&quot;300&quot; height=&quot;193&quot; /&gt;&lt;/a&gt;&lt;p class=&quot;wp-caption-text&quot;&gt;Parece Virtualização, mas não é :)&lt;/p&gt;&lt;/div&gt;
&lt;p&gt;&lt;span id=&quot;more-73&quot;&gt;&lt;/span&gt;&lt;/p&gt;
&lt;p&gt;Continuando sobre o conceito da plataforma Docker, eles disponibilizam também um serviço de &lt;a href=&quot;https://hub.docker.com/&quot; target=&quot;_blank&quot;&gt;nuvem&lt;/a&gt; para armazenar e compartilhar imagens prontas, criadas tanto pela comunidade responsável pelo Docker, como por qualquer outra pessoa interessada, e o melhor, sem custo!&lt;/p&gt;
&lt;p&gt;Cada pessoa registrada no serviço tem a possibilidade de criar um número ilimitado de imagens públicas (todos podem ver e baixar) e apenas uma imagem privada na conta gratuita.&lt;/p&gt;
&lt;h2&gt;Imagens e Containers&lt;/h2&gt;
&lt;p&gt;Uma máquina docker pode ser composta de várias camadas. E essas camadas se dividem em dois tipos; Imagens e Containers.&lt;/p&gt;
&lt;ul&gt;
&lt;li&gt;&lt;strong&gt;Imagens:&lt;/strong&gt; Uma vez as &amp;#8220;máquinas&amp;#8221; em execução essas camadas são montadas como somente leitura. Elas podem ser compartilhadas por várias &amp;#8220;máquinas&amp;#8221;, ou seja, uma vez modificadas afetam todas as &amp;#8220;máquinas&amp;#8221; que usam essas imagens.&lt;/li&gt;
&lt;li&gt;&lt;strong&gt;Containers:&lt;/strong&gt; Essas camadas são montadas como leitura e escrita. É onde de fato estão as modificações da &amp;#8220;máquina&amp;#8221; em execução. Toda modificação realizada em uma imagem é feita a partir de um container.&lt;/li&gt;
&lt;/ul&gt;
&lt;div id=&quot;attachment_82&quot; class=&quot;wp-caption aligncenter&quot;&gt;&lt;a href=&quot;http://techfree.com.br/wp-content/uploads/2015/03/oque_e_docker.jpeg&quot;&gt;&lt;img class=&quot;size-medium wp-image-82&quot; src=&quot;http://techfree.com.br/wp-content/uploads/2015/03/oque_e_docker-300x284.jpeg&quot; alt=&quot;Imagens e containers, perfeita sinergia. &quot; width=&quot;300&quot; height=&quot;284&quot; /&gt;&lt;/a&gt;&lt;p class=&quot;wp-caption-text&quot;&gt;Imagens e containers, perfeita sinergia.&lt;/p&gt;&lt;/div&gt;
&lt;h2&gt;Instalando o Docker&lt;/h2&gt;
&lt;p&gt;Se você usar Debian Jessie ou superior, não terá problemas. Basta executar o comando abaixo:&lt;br /&gt;
&lt;code&gt;# aptitude install docker.io&lt;/code&gt;&lt;/p&gt;
&lt;p&gt;Caso não utilize GNU/Linux, pode usar o &lt;a href=&quot;http://boot2docker.io/&quot; target=&quot;_blank&quot;&gt;boot2docker&lt;/a&gt;.&lt;/p&gt;
&lt;h2&gt;Conhecendo alguns comandos básicos&lt;/h2&gt;
&lt;p&gt;Infelizmente o docker ainda não tem uma interface web ou gráfica desktop suportada de forma estável pela sua comunidade oficial, sendo assim falaremos aqui apenas de comandos no shell.&lt;/p&gt;
&lt;p&gt;Seguem abaixo os comandos mais básicos do docker:&lt;br /&gt;
&lt;code&gt;&lt;br /&gt;
docker pull [nome da imagem]&lt;/code&gt; : Baixar imagem&lt;br /&gt;
&lt;code&gt;docker images&lt;/code&gt; : Listar imagens&lt;br /&gt;
&lt;code&gt;docker run [nome da imagem]&lt;/code&gt; : Iniciar a imagem&lt;br /&gt;
&lt;code&gt;docker ps&lt;/code&gt;  : Listar containers&lt;br /&gt;
&lt;code&gt;docker exec [id do container] [comando]&lt;/code&gt; : Executa comandos no container&lt;/p&gt;
&lt;p&gt;Mais comandos podem ser encontrados nesse &lt;a href=&quot;https://docs.docker.com/reference/commandline/cli/&quot;&gt;link&lt;/a&gt;.&lt;/p&gt;
&lt;h2&gt;Instalando uma &amp;#8220;máquina&amp;#8221; e executando em 2 minutos&lt;/h2&gt;
&lt;p&gt;Dois comandos, e o tempo gasto será apenas de download:&lt;/p&gt;
&lt;p&gt;&lt;code&gt;# docker pull nginx&lt;br /&gt;
# docker run -d -p 80:80 nginx&lt;br /&gt;
&lt;/code&gt;&lt;/p&gt;
&lt;p&gt;Pronto! Sua &amp;#8220;máquina&amp;#8221; estará funcionando.&lt;/p&gt;
&lt;p&gt;O parâmetro &lt;strong&gt;-d&lt;/strong&gt; informa que a &amp;#8220;máquina&amp;#8221; será executada em background e o parâmetro &lt;strong&gt;-p&lt;/strong&gt; informa que toda requisição da porta 80 do hospedeiro X será redirecionada para a porta 80 da &amp;#8220;máquina&amp;#8221; que acabou de ser iniciada.&lt;/p&gt;
&lt;h2&gt;Sem persistência&lt;/h2&gt;
&lt;p&gt;Lembrando que as mudanças são apenas aplicadas no container, toda vez que desligar a &amp;#8220;máquina&amp;#8221;, na verdade você estará desmontando essa camada, e ao iniciar a &amp;#8220;máquina&amp;#8221; a partir de uma imagem será criado um novo container, ou seja, terás uma &amp;#8220;máquina&amp;#8221; &amp;#8220;novinha em folha&amp;#8221;.&lt;/p&gt;
&lt;p&gt;Para desligar um container em execução, use o comando abaixo:&lt;/p&gt;
&lt;p&gt;&lt;code&gt;# docker stop &amp;lt;id do container&amp;gt;&lt;/code&gt;&lt;/p&gt;
&lt;p&gt;Lembre-se que para obter o id do container, é necessário executar o comando abaixo:&lt;/p&gt;
&lt;p&gt;&lt;code&gt;# docker ps&lt;/code&gt;&lt;/p&gt;
&lt;p&gt;É possível reiniciar um container que foi &amp;#8220;desligado&amp;#8221;. Para isso usa-se o comando abaixo:&lt;/p&gt;
&lt;p&gt;&lt;code&gt;# docker start &amp;lt;id do container&amp;gt;&lt;br /&gt;
&lt;/code&gt;&lt;/p&gt;
&lt;p&gt;Obs: Lembrando que todos os dados de memória RAM serão perdidos, apenas os dados em disco serão armazenados e reutilizados na próxima execução.&lt;/p&gt;
&lt;h2&gt;Acesso ao shell da &amp;#8220;máquina&amp;#8221;&lt;/h2&gt;
&lt;p&gt;Após a &amp;#8220;máquina&amp;#8221; está em execução, é possível acessar o shell da &amp;#8220;máquina&amp;#8221; e executar procedimentos localmente. Para isso usa-se o comando abaixo:&lt;/p&gt;
&lt;p&gt;&lt;code&gt;docker exec -it &amp;lt;id do container&amp;gt; bash&lt;br /&gt;
&lt;/code&gt;&lt;/p&gt;
&lt;p&gt;O parâmetro &lt;strong&gt;-i&lt;/strong&gt; informa que esse comando será executado no modo interativo, e o parâmetro &lt;strong&gt;-t&lt;/strong&gt; informa que deverá ser alocado um pseudo-TTY, por fim o comando bash será executado na &amp;#8220;máquina&amp;#8221; e lhe dará acesso a  seu shell.&lt;/p&gt;
&lt;p&gt;Por hoje é só. Aguardem novos artigos sobre Docker, pois falaremos sobre modificação de imagens, mapeamento de disco, criação de &amp;#8220;máquinas&amp;#8221; &amp;#8220;do zero&amp;#8221; e outras coisas interessantes sobre esse assunto.&lt;/p&gt;
&lt;p&gt;&lt;strong&gt;Referência : &lt;/strong&gt;&lt;a href=&quot;https://docs.docker.com/reference/&quot; target=&quot;_blank&quot;&gt;https://docs.docker.com/reference/&lt;/a&gt;&lt;/p&gt;</content>
		<author>
			<name>Techfree (Gomex)</name>
			<uri>http://techfree.com.br</uri>
		</author>
		<source>
			<title type="html">Tecnologia Livre » DevOps</title>
			<subtitle type="html">Tecnologia precisa ser livre</subtitle>
			<link rel="self" href="http://techfree.com.br/category/devops/feed/"/>
			<id>http://techfree.com.br/category/devops/feed/</id>
			<updated>2015-03-30T18:20:02+00:00</updated>
		</source>
	</entry>

	<entry xml:lang="pt-BR">
		<title type="html">Git: Juntando vários Commits em um só usando SQUASH</title>
		<link href="http://webcomfarinha.com/blog/juntando-varios-commits-em-um-so-usando-git-squash/"/>
		<id>http://webcomfarinha.com/blog/?p=624</id>
		<updated>2013-01-20T18:26:10+00:00</updated>
		<content type="html">&lt;p&gt;Hoje, deixo aqui uma dica bastante legal a ser utilizada no versionamento de seus códigos utilizando &lt;strong&gt;Git&lt;/strong&gt;.&lt;/p&gt;
&lt;h2&gt;Situação&lt;/h2&gt;
&lt;p&gt;Você está com o código de seu projeto organizado e versionado com &lt;strong&gt;Git&lt;/strong&gt;. Para desenvolvimento de novas funcionalidades, você adota a boa prática do uso de branches, assim como para correções de erros também &amp;#8211; bugfixes.&lt;/p&gt;
&lt;p&gt;Adotando o fluxo recomendado em um versionamento Git, teríamos um ambiente semelhante a figura abaixo:&lt;/p&gt;
&lt;p&gt;&lt;img class=&quot;aligncenter&quot; alt=&quot;pricipais branches no versionamento com Git&quot; src=&quot;http://git-scm.com/images/about/branches@2x.png&quot; width=&quot;350&quot; height=&quot;202&quot; /&gt;&lt;/p&gt;
&lt;p&gt;http://git-scm.com/images/about/branches@2x.png&lt;/p&gt;
&lt;p&gt;&lt;span id=&quot;more-624&quot;&gt;&lt;/span&gt;Seu código em produção, funcional, testado, aprovado, estaria no &lt;strong&gt;branch master.&lt;/strong&gt; Para desenvolvimento, sempre teríamos um branch específico (neste caso chamado &lt;strong&gt;develop&lt;/strong&gt;), do qual criaríamos branches para cada funcionalidade, correção de bugs ou códigos adicionais. Assim, sempre ao término do desenvolvimento de um branch, faríamos um &lt;strong&gt;merge&lt;/strong&gt; com o &lt;strong&gt;develop&lt;/strong&gt;, resolveríamos os conflitos, faríamos testes e posteriormente jogaríamos o código pronto e funcional no branch principal (&lt;strong&gt;master&lt;/strong&gt;).&lt;/p&gt;
&lt;p&gt;No fluxo normal de seu trabalho na correção de um bug no código vc seguirá (geralmente) as seguintes etapas:&lt;/p&gt;
&lt;ul&gt;
&lt;li&gt;criação de um branch bugfix a partir do branch develop.&lt;/li&gt;
&lt;li&gt;desenvolvimento no branch bugfix de seu código para corrigir o erro.&lt;/li&gt;
&lt;li&gt;merge/rebase dos branches develop e bugfix&lt;/li&gt;
&lt;li&gt;rebase/merge no branch master com o branch develop&lt;/li&gt;
&lt;/ul&gt;
&lt;h2&gt;Problema&lt;/h2&gt;
&lt;p&gt;Como convenção de versionamento adotada na sua equipe na correção de bugs, o código retificado (com a solução do problema) deve ir para produção (branch master) em um único commit. Contudo, você como bom desenvolvedor e versionador &lt;strong&gt;Git&lt;/strong&gt;, adota também a máxima &lt;strong&gt;&amp;#8220;Commit all the time&amp;#8221;&lt;/strong&gt; para proteger seu código garantindo bom versionamento.&lt;/p&gt;
&lt;h2&gt;Como Fazer?&lt;/h2&gt;
&lt;p&gt;Em seu desenvolvimento, não tenha medo ou preguiça de commitar. Em nosso caso, suponhamos que em seu branch bugfix vc realizou os seguintes commits:&lt;/p&gt;
&lt;ul&gt;
&lt;li&gt;&lt;span&gt;Commit #1: inserindo novos testes para correção do bug;&lt;/span&gt;&lt;/li&gt;
&lt;li&gt;Commit #2: implementando lógica para que os testes funcionem;&lt;/li&gt;
&lt;li&gt;Commit #3: mais implementações para que os testes funcionem&lt;/li&gt;
&lt;/ul&gt;
&lt;p&gt;Você consegue resolver o bug apresentado em seu código. Quando olha o status de seu branch percebe que ele possui 03 commits. Mas, para o merge com o branch develop, precisa ir tudo em um commit único. Como fazer? Simples:&lt;/p&gt;
&lt;p&gt;&lt;em&gt;$ git checkout develop&lt;/em&gt;&lt;/p&gt;
&lt;p&gt;&lt;em&gt;$ git merge &amp;#8212; squash bugfix&lt;/em&gt;&lt;/p&gt;
&lt;p&gt;Veja o status de seu branch develop. Perceba que o Git trouxe para você todos os commits realizados em seu branch bugfix, mas não realizou ainda o commit no develop. Ele pega todos os arquivos, aplica o merge, porém deixa-os na &lt;a href=&quot;http://git-scm.com/about/staging-area&quot;&gt;&lt;strong&gt;staging area &lt;/strong&gt;&lt;/a&gt;preparados para commit. Assim, basta você agora realizar um:&lt;/p&gt;
&lt;p&gt;&lt;em&gt;$ git commit -m &amp;#8220;adicionando correcao do bug foo bla&amp;#8221; &lt;/em&gt;&lt;/p&gt;
&lt;p&gt;que todos os commits do branch bugfix virarão um único commit no branch develop.&lt;/p&gt;
&lt;p&gt;O squash é muito útil, pois o desenvolvedor precisa commitar o tempo todo em seu ambiente de desenvolvimento garantindo a segurança de seu código e para manter o branch master mais clean e fácil de visualização, pois neste caso, toda a correção do bug estaria representado na linha do tempo por um único commit.&lt;/p&gt;</content>
		<author>
			<name>Matheus Andrade</name>
			<uri>http://webcomfarinha.com/blog</uri>
		</author>
		<source>
			<title type="html">WEB COM FARINHA » Git</title>
			<subtitle type="html">Devorando a Web... e Comendo com Farinha</subtitle>
			<link rel="self" href="http://webcomfarinha.com/blog/category/git-2/feed/"/>
			<id>http://webcomfarinha.com/blog/category/git-2/feed/</id>
			<updated>2015-03-28T04:15:03+00:00</updated>
		</source>
	</entry>

</feed>
