<?xml version="1.0"?>
<opml version="1.1">
	<head>
		<title>DevOps Brasil</title>
		<dateModified>Wed, 01 Apr 2015 21:40:02 +0000</dateModified>
		<ownerName>Rafael Gomes</ownerName>
		<ownerEmail>gomex@riseup.net</ownerEmail>
	</head>
	
	<body>
		<outline type="rss" text="Matheus Andrade" xmlUrl="http://webcomfarinha.com/blog/category/git-2/feed/" title="WEB COM FARINHA » Git" />
		<outline type="rss" text="Techfree (Gomex)" xmlUrl="http://techfree.com.br/category/devops/feed/" title="Tecnologia Livre » DevOps" />
	</body>
</opml>
